[
  { "id": 1, "firstName": "John", "lastName": "Smith", "email": "john.smith@mailinator.com", "phoneNumber": "+1 212 555-1212", "birthDate": "1963-06-03" },
  { "id": 2, "firstName": "Davey", "lastName": "Jones", "email": "davey.jones@locker.com", "phoneNumber": "+1 212-555-3333", "birthDate": "1996-08-07" },
  { "id": 3, "firstName": "Gail", "lastName": "Powell", "email": "gpowell@dps.state.nv.us", "phoneNumber": "775-687-0325",  "birthDate": "1963-07-03" },
  { "id": 4, "firstName": "Jackie", "lastName": "Conway", "email": "jconway@dps.state.nv.us", "phoneNumber": "775-687-0381",  "birthDate": "1964-07-03" },
  { "id": 5, "firstName": "Jamie", "lastName": "Borino", "email": "jborino@dps.state.nv.us", "phoneNumber": "775-687-0389",  "birthDate": "1965-07-03" },
  { "id": 6, "firstName": "Janell", "lastName": "Woodward", "email": "jwoodward@dps.state.nv.us", "phoneNumber": "775-687-0314",  "birthDate": "1966-07-03" },
  { "id": 7, "firstName": "Jay", "lastName": "Giovacchini", "email": "jgiovacchini@dps.state.nv.us", "phoneNumber": "775-687-0317",  "birthDate": "1967-07-03" },
  { "id": 8, "firstName": "Judith", "lastName": "Lyman", "email": "jlyman@dps.state.nv.us", "phoneNumber": "775-687-0324",  "birthDate": "1968-07-03" },
  { "id": 9, "firstName": "Karen", "lastName": "Hall", "email": "klhall@dps.state.nv.us", "phoneNumber": "775-687-0424",  "birthDate": "1969-07-03" },
  { "id": 10, "firstName": "Lanita", "lastName": "Magee", "email": "llmagee@dps.state.nv.us", "phoneNumber": "775-687-0310",  "birthDate": "1973-07-03" },
  { "id": 11, "firstName": "Loretta", "lastName": "Smith", "email": "lismith@dps.state.nv.us", "phoneNumber": "775-687-0315",  "birthDate": "1983-07-03" },
  { "id": 12, "firstName": "Lori", "lastName": "DeGristina", "email": "ldegristina@dps.state.nv.us", "phoneNumber": "775-687-0320",  "birthDate": "1993-07-03" },
  { "id": 13, "firstName": "Matt", "lastName": "Williams", "email": "matt.williams@dps.state.nv.us", "phoneNumber": "775-687-0326",  "birthDate": "1953-07-03" },
  { "id": 14, "firstName": "Michelle", "lastName": "Dobbs", "email": "mdobbs@dps.state.nv.us", "phoneNumber": "775-687-0303",  "birthDate": "1943-07-03" },
  { "id": 15, "firstName": "Paul", "lastName": "Burke", "email": "pburke@dps.state.nv.us", "phoneNumber": "775-687-0423",  "birthDate": "1933-07-03" }
]
